…
```r
#
perday <- dat %>% 
  group_by(date) %>% 
  summarize(total = sum(steps, na.rm = TRUE),
         average = mean(steps, na.rm = TRUE),
        mediam = median(steps, na.rm = TRUE)) 
perday
```

```
## # A tibble: 61 x 4
##    date       total average mediam
##    <date>     <dbl>   <dbl>  <dbl>
##  1 2012-10-01     0 NaN         NA
##  2 2012-10-02   126   0.438      0
##  3 2012-10-03 11352  39.4        0
##  4 2012-10-04 12116  42.1        0
##  5 2012-10-05 13294  46.2        0
##  6 2012-10-06 15420  53.5        0
##  7 2012-10-07 11015  38.2        0
##  8 2012-10-08     0 NaN         NA
##  9 2012-10-09 12811  44.5        0
## 10 2012-10-10  9900  34.4        0
## # ... with 51 more rows
```
…
